4;13;14;19;34;36;52
13;15;20;37;47;55;59
37;40;42;44;54;55;58
11;13;34;35;37;40;52
4;7;8;31;37;48;53
6;7;10;36;52;57;60
3;9;16;33;35;40;50
8;23;24;25;31;53;54;55
21;31;32;42;47;55;58;59
2;7;10;11;13;31;35;58
13;15;33;37;46;50;52;60
1;7;19;20;22;35;40;57
1;5;21;27;35;36;44;49
9;35;39;40;41;43;47;50
8;9;10;34;35;38;49;50;52
6;7;16;19;35;36;39;43;44
5;12;39;51;53;54;58;59;60
3;7;9;13;22;24;26;37;40
7;8;21;31;33;34;36;40;55
8;15;20;43;47;51;52;58;60
19;23;26;28;29;35;37;38;53
22;25;30;31;36;42;49;51;52;59
5;6;17;19;22;24;28;35;44;49
8;10;14;20;31;37;39;44;50;52
2;7;8;18;24;26;30;33;37;39
8;21;24;27;30;34;35;36;57;58
2;32;36;37;38;50;52;53;58;59
5;7;36;38;39;51;52;57;58;60
5;6;9;10;21;25;26;28;51;53;59
2;3;6;11;16;31;32;33;35;55;58
1;2;3;22;35;39;40;52;55;56;58
12;18;19;20;24;25;26;41;42;43;45
1;2;6;8;22;23;26;27;51;58;60
1;2;7;8;31;32;51;52;53;57;60
2;5;10;33;34;35;37;42;46;48;50
